{
  "notes": [
    {
      "note": "Belajar React Native",
      "id": 1
    },
    {
      "note": "Tidur siang",
      "id": 2
    },
    {
      "note": "Bersepeda",
      "id": 3
    },
    {
      "note": "Makan malam",
      "id": 4
    },
    {
      "note": "Menonton TV",
      "id": 5
    },
    {
      "note": "Membaca buku",
      "id": 6
    },
    {
      "note": "Tidur",
      "id": 7
    },
    {
      "note": "Kuliah",
      "id": 8
    }
  ]
}